…
En este curso realizaremos las distintas tareas que forman parte de la
ciencia de datos utilizando *tidyverse*, aunque también se podrían
llevar a cabo con R base.

## Importar datos y renombrar variables

### [Read_delim](https://readr.tidyverse.org/reference/read_delim.html): leer datos desde fuera de R

``` r
taludes <- read_delim(file = "taludes.csv", delim = ",")

taludes
```

    # A tibble: 91 × 3
       Biomasa Luz     Agua          
         <dbl> <chr>   <chr>         
     1    3.04 Nivel 1 Sequia estival
     2    3.57 Nivel 1 Sequia estival
     3    3.67 Nivel 1 Sequia estival
     4    4.59 Nivel 1 Sequia estival
     5    4.34 Nivel 1 Sequia estival
     6    2.25 Nivel 1 Sequia estival
     7    4.12 Nivel 1 Sequia estival
     8    2.45 Nivel 1 Sequia estival
     9    4.46 Nivel 1 Sequia estival
    10    3.51 Nivel 1 Sequia estival
    # ℹ 81 more rows

``` r
taludes_bien <- read_delim(file = "taludes.csv", 
  delim = ",", col_types = list(Luz = "f", Agua = "f"))

taludes_bien
```

    # A tibble: 91 × 3
       Biomasa Luz     Agua          
         <dbl> <fct>   <fct>         
     1    3.04 Nivel 1 Sequia estival
     2    3.57 Nivel 1 Sequia estival
     3    3.67 Nivel 1 Sequia estival
     4    4.59 Nivel 1 Sequia estival
     5    4.34 Nivel 1 Sequia estival
     6    2.25 Nivel 1 Sequia estival
     7    4.12 Nivel 1 Sequia estival
     8    2.45 Nivel 1 Sequia estival
     9    4.46 Nivel 1 Sequia estival
    10    3.51 Nivel 1 Sequia estival
    # ℹ 81 more rows
…
``` r
taludes_bien |>
  slice(-c(1:5))
```

    # A tibble: 86 × 3
       biomasa nivel_luz agua_estival  
         <dbl> <fct>     <fct>         
     1    2.25 Nivel 1   Sequia estival
     2    4.12 Nivel 1   Sequia estival
     3    2.45 Nivel 1   Sequia estival
     4    4.46 Nivel 1   Sequia estival
     5    3.51 Nivel 1   Sequia estival
     6    3.49 Nivel 1   Sequia estival
     7    2.80 Nivel 1   Sequia estival
     8    3.91 Nivel 1   Sequia estival
     9    3.16 Nivel 1   Sequia estival
    10    3.81 Nivel 1   Sequia estival
    # ℹ 76 more rows

### [Arrange](https://dplyr.tidyverse.org/reference/arrange.html): ordenar filas por los valores de una o más variables (columnas)

``` r
taludes_bien |>
  arrange(biomasa)
```

    # A tibble: 91 × 3
       biomasa nivel_luz agua_estival  
         <dbl> <fct>     <fct>         
     1    2.12 Nivel 2   Lluvia estival
     2    2.25 Nivel 1   Sequia estival
     3    2.35 Nivel 3   Lluvia estival
     4    2.45 Nivel 1   Sequia estival
     5    2.49 Nivel 3   Lluvia estival
     6    2.54 Nivel 3   Lluvia estival
     7    2.70 Nivel 3   Lluvia estival
     8    2.73 Nivel 3   Lluvia estival
     9    2.80 Nivel 1   Sequia estival
    10    2.86 Nivel 3   Lluvia estival
    # ℹ 81 more rows

``` r
taludes_bien |> 
  arrange(desc(biomasa))
```

    # A tibble: 91 × 3
       biomasa nivel_luz agua_estival  
         <dbl> <fct>     <fct>         
     1    5.35 Nivel 3   Sequia estival
     2    5.30 Nivel 3   Sequia estival
     3    5.21 Nivel 1   Lluvia estival
     4    5.17 Nivel 2   Lluvia estival
     5    5.16 Nivel 1   Lluvia estival
     6    5.13 Nivel 2   Sequia estival
     7    5.10 Nivel 2   Lluvia estival
     8    5.06 Nivel 3   Sequia estival
     9    4.98 Nivel 2   Lluvia estival
    10    4.94 Nivel 1   Lluvia estival
    # ℹ 81 more rows

### [Filter](https://dplyr.tidyverse.org/reference/filter.html): filtrar filas utilizando condiciones

Se necesita un vector de filtrado que contenga valores lógicos
(TRUE/FALSE).

``` r
taludes_bien |>
  filter(nivel_luz == "Nivel 1") # filtrar por filas que cumplen un patrón 
```

    # A tibble: 30 × 3
       biomasa nivel_luz agua_estival  
         <dbl> <fct>     <fct>         
     1    3.04 Nivel 1   Sequia estival
     2    3.57 Nivel 1   Sequia estival
     3    3.67 Nivel 1   Sequia estival
     4    4.59 Nivel 1   Sequia estival
     5    4.34 Nivel 1   Sequia estival
     6    2.25 Nivel 1   Sequia estival
     7    4.12 Nivel 1   Sequia estival
     8    2.45 Nivel 1   Sequia estival
     9    4.46 Nivel 1   Sequia estival
    10    3.51 Nivel 1   Sequia estival
    # ℹ 20 more rows
…
``` r
taludes_bien |>
  filter(nivel_luz == "Nivel 1" | biomasa > 5) # combinar criterios: OR
```

    # A tibble: 36 × 3
       biomasa nivel_luz agua_estival  
         <dbl> <fct>     <fct>         
     1    3.04 Nivel 1   Sequia estival
     2    3.57 Nivel 1   Sequia estival
     3    3.67 Nivel 1   Sequia estival
     4    4.59 Nivel 1   Sequia estival
     5    4.34 Nivel 1   Sequia estival
     6    2.25 Nivel 1   Sequia estival
     7    4.12 Nivel 1   Sequia estival
     8    2.45 Nivel 1   Sequia estival
     9    4.46 Nivel 1   Sequia estival
    10    3.51 Nivel 1   Sequia estival
    # ℹ 26 more rows

``` r
taludes_bien |>
  filter(nivel_luz %in% c("Nivel 1", "Nivel 3")) # combinar criterios: %in% 
```

    # A tibble: 60 × 3
       biomasa nivel_luz agua_estival  
         <dbl> <fct>     <fct>         
     1    3.04 Nivel 1   Sequia estival
     2    3.57 Nivel 1   Sequia estival
     3    3.67 Nivel 1   Sequia estival
     4    4.59 Nivel 1   Sequia estival
     5    4.34 Nivel 1   Sequia estival
     6    2.25 Nivel 1   Sequia estival
     7    4.12 Nivel 1   Sequia estival
     8    2.45 Nivel 1   Sequia estival
     9    4.46 Nivel 1   Sequia estival
    10    3.51 Nivel 1   Sequia estival
    # ℹ 50 more rows
…
- Crea un subset con las observaciones del Taxon 2 donde se haya
  registrado una abundancia mayor de 50 o menor o igual a 5. Pista:
  necesitarás paréntesis para filtrar. ¿Cuántas filas han quedado?

### [Select](https://dplyr.tidyverse.org/reference/select.html): seleccionar columnas utilizando condiciones

Se necesita un vector de selección que contenga valores lógicos
(TRUE/FALSE).

``` r
taludes_bien |>
  select(biomasa, agua_estival)
```

    # A tibble: 91 × 2
       biomasa agua_estival  
         <dbl> <fct>         
     1    3.04 Sequia estival
     2    3.57 Sequia estival
     3    3.67 Sequia estival
     4    4.59 Sequia estival
     5    4.34 Sequia estival
     6    2.25 Sequia estival
     7    4.12 Sequia estival
     8    2.45 Sequia estival
     9    4.46 Sequia estival
    10    3.51 Sequia estival
    # ℹ 81 more rows

``` r
?select # operators y selection helpers

taludes_bien |>
  select(contains("a"))
```

    # A tibble: 91 × 2
       biomasa agua_estival  
         <dbl> <fct>         
     1    3.04 Sequia estival
     2    3.57 Sequia estival
     3    3.67 Sequia estival
     4    4.59 Sequia estival
     5    4.34 Sequia estival
     6    2.25 Sequia estival
     7    4.12 Sequia estival
     8    2.45 Sequia estival
     9    4.46 Sequia estival
    10    3.51 Sequia estival
    # ℹ 81 more rows

``` r
# se pueden utilizar todo tipo de patrones de texto: https://rstudio.github.io/cheatsheets/strings.pdf

taludes_bien |>
  select(nivel_luz, everything()) # se puede usar para reordenar variables
```

    # A tibble: 91 × 3
       nivel_luz biomasa agua_estival  
       <fct>       <dbl> <fct>         
     1 Nivel 1      3.04 Sequia estival
     2 Nivel 1      3.57 Sequia estival
     3 Nivel 1      3.67 Sequia estival
     4 Nivel 1      4.59 Sequia estival
     5 Nivel 1      4.34 Sequia estival
     6 Nivel 1      2.25 Sequia estival
     7 Nivel 1      4.12 Sequia estival
     8 Nivel 1      2.45 Sequia estival
     9 Nivel 1      4.46 Sequia estival
    10 Nivel 1      3.51 Sequia estival
    # ℹ 81 more rows
…
      c(0, 1),
      size = nrow(taludes_bien),
      replace = TRUE
    )),
    # utilizar una variable para calcular otra
    carbono = biomasa * rnorm(
      n = nrow(taludes_bien),
      mean = 0.4,
      sd = 0.2
    )
  ) |> 
  select(ID, everything())
```

    # A tibble: 91 × 6
          ID biomasa nivel_luz agua_estival   supervivencia carbono
       <int>   <dbl> <fct>     <fct>          <fct>           <dbl>
     1     1    3.04 Nivel 1   Sequia estival 0               0.931
     2     2    3.57 Nivel 1   Sequia estival 1               0.877
     3     3    3.67 Nivel 1   Sequia estival 0               3.05 
     4     4    4.59 Nivel 1   Sequia estival 1               0.611
     5     5    4.34 Nivel 1   Sequia estival 1               2.17 
     6     6    2.25 Nivel 1   Sequia estival 0               1.46 
     7     7    4.12 Nivel 1   Sequia estival 0               2.17 
     8     8    2.45 Nivel 1   Sequia estival 0               1.18 
     9     9    4.46 Nivel 1   Sequia estival 0               2.49 
    10    10    3.51 Nivel 1   Sequia estival 1               1.30 
    # ℹ 81 more rows
…
  mutate(
    # sobreescribir una variable. En concreto fct_recode 
    # sirve para redefinir los niveles de un factor
    agua_estival = fct_recode(
      agua_estival, sequia = "Sequia estival", lluvia = "Lluvia estival"),
    nivel_luz = fct_recode(
      nivel_luz,
      `1` = "Nivel 1",
      `2` = "Nivel 2",
      `3` = "Nivel 3"
    )
  )
```

    # A tibble: 91 × 3
       biomasa nivel_luz agua_estival
         <dbl> <fct>     <fct>       
     1    3.04 1         sequia      
     2    3.57 1         sequia      
     3    3.67 1         sequia      
     4    4.59 1         sequia      
     5    4.34 1         sequia      
     6    2.25 1         sequia      
     7    4.12 1         sequia      
     8    2.45 1         sequia      
     9    4.46 1         sequia      
    10    3.51 1         sequia      
    # ℹ 81 more rows

``` r
taludes_bien |>
  mutate(
    # utilizar varias variables para calcular otra nueva
    estres = case_when(
      # "Si el nivel de luz es 1 y hay sequia, el estrés será alto"
      nivel_luz == "Nivel 1" & agua_estival == "Sequia estival" ~ "alto",
      nivel_luz == "Nivel 3" & agua_estival == "Lluvia estival" ~ "bajo",
      TRUE ~ "intermedio"
    )
  )
```

    # A tibble: 91 × 4
       biomasa nivel_luz agua_estival   estres
         <dbl> <fct>     <fct>          <chr> 
     1    3.04 Nivel 1   Sequia estival alto  
     2    3.57 Nivel 1   Sequia estival alto  
     3    3.67 Nivel 1   Sequia estival alto  
     4    4.59 Nivel 1   Sequia estival alto  
     5    4.34 Nivel 1   Sequia estival alto  
     6    2.25 Nivel 1   Sequia estival alto  
     7    4.12 Nivel 1   Sequia estival alto  
     8    2.45 Nivel 1   Sequia estival alto  
     9    4.46 Nivel 1   Sequia estival alto  
    10    3.51 Nivel 1   Sequia estival alto  
    # ℹ 81 more rows
…
