quarto-input66601a0d18dcdf79
…
💡La inclusión de variables en el modelo aumenta el número de parámetros a estimar. De forma general se suele recomendar tener al menos 10 observaciones independientes por parámetro a estimar, aunque como siempre esto no debe tomarse a raja tabla.

# install.packages("performance")
library(performance)
# install.packages("")
library(sjPlot)
# install.packages("broom")
library(broom) # https://broom.tidymodels.org/articles/broom.html
library(GGally)

ozono <- read_delim(file = "Ozone.txt", delim = "\t") 
ozono

# A tibble: 110 × 4
     rad  temp  wind ozone
   <dbl> <dbl> <dbl> <dbl>
 1   190    67   7.4    41
 2   118    72   8      36
 3   149    74  12.6    12
 4   313    62  11.5    18
 5   299    65   8.6    23
 6    99    59  13.8    19
 7    19    61  20.1     8
 8   256    69   9.7    16
 9   290    66   9.2    11
10   274    68  10.9    14
# ℹ 100 more rows
…
# install.packages("emmeans")
library(emmeans)
# Guia de emmeans: https://rvlenth.github.io/emmeans/articles/AQuickStart.html

pinos <- read_delim(file = "RxF_growth.csv", delim = ",",
           col_types = list(Irrig = "f",
             Fert = "f"))

# pinos contiene datos de un experimento en el que se plantaron 144 plántulas de Pinus pinea en un campo abandonado y se sometieron a un experimento factorial con 4 niveles de riego (0, 150, 300 y 600 mm año⁻¹) y 3 tratamientos de fertilización nitrogenada (0, 150 y 300 kg N ha⁻¹) distribuidos aleatoriamente.

# Queremos saber si el incremento en diamétro (DI) estuvo condicionado por la irrigación

pinos

# A tibble: 144 × 5
   Plant Block Irrig Fert     DI
   <dbl> <dbl> <fct> <fct> <dbl>
 1     1     1 R0    F0     27.2
 2     2     1 R0    F0     15.4
 3     3     1 R0    F0     35.0
 4    37     2 R0    F0     28.1
 5    38     2 R0    F0     23.6
 6    39     2 R0    F0     34.3
 7    73     3 R0    F0     34.2
 8    74     3 R0    F0     20.7
 9    75     3 R0    F0     15.9
10   109     4 R0    F0     30.0
# ℹ 134 more rows
…
