…
``` r
# 2
macro |> 
  slice(c(1:10, 390:400))
```

    # A tibble: 21 × 12
        time period    CT effort o_matter   mud  silt  clay turbidity temperature
       <dbl>  <dbl> <dbl>  <dbl>    <dbl> <dbl> <dbl> <dbl>     <dbl>       <dbl>
     1     1      1     0   0        1.16  35.3  25.1 10.2       5.71        10.5
     2     1      1     0   0        1.38  34.5  21.9 12.5       9.55        10.6
     3     1      1     0   0        1.84  38.4  23.5 14.9       8.01        10.6
     4     1      1     0   0        1.62  30.7  17.7 13.0       8.01        10.6
     5     1      1     0   0        1.62  32.6  23.3  9.27      8.78        10.6
     6     1      1     1   1.71     2.13  43.4  29.2 14.2       9.55        10.8
     7     1      1     1   1.71     1.78  39.4  26.5 12.9       9.55        10.8
     8     1      1     1   1.71     1.87  43.3  23.0 20.3       7.25        10.8
     9     1      1     1   1.71     1.56  41.3  22.2 19.1       8.01        10.8
    10     1      1     1   1.71     1.15  38.0  26.4 11.6       8.01        10.8
    # ℹ 11 more rows
    # ℹ 2 more variables: Abundance <dbl>, TaxonID <dbl>

``` r
# 3
macro |> 
  filter(TaxonID != 1)
```

    # A tibble: 320 × 12
        time period    CT effort o_matter   mud  silt  clay turbidity temperature
       <dbl>  <dbl> <dbl>  <dbl>    <dbl> <dbl> <dbl> <dbl>     <dbl>       <dbl>
     1     1      1     0   0        1.16  35.3  25.1 10.2       5.71        10.5
     2     1      1     0   0        1.38  34.5  21.9 12.5       9.55        10.6
     3     1      1     0   0        1.84  38.4  23.5 14.9       8.01        10.6
     4     1      1     0   0        1.62  30.7  17.7 13.0       8.01        10.6
     5     1      1     0   0        1.62  32.6  23.3  9.27      8.78        10.6
     6     1      1     1   1.71     2.13  43.4  29.2 14.2       9.55        10.8
     7     1      1     1   1.71     1.78  39.4  26.5 12.9       9.55        10.8
     8     1      1     1   1.71     1.87  43.3  23.0 20.3       7.25        10.8
     9     1      1     1   1.71     1.56  41.3  22.2 19.1       8.01        10.8
    10     1      1     1   1.71     1.15  38.0  26.4 11.6       8.01        10.8
    # ℹ 310 more rows
    # ℹ 2 more variables: Abundance <dbl>, TaxonID <dbl>

``` r
# 4
macro |> 
  filter(TaxonID == 2 & (Abundance > 50 | Abundance <= 5))
```

    # A tibble: 21 × 12
        time period    CT effort o_matter   mud  silt  clay turbidity temperature
       <dbl>  <dbl> <dbl>  <dbl>    <dbl> <dbl> <dbl> <dbl>     <dbl>       <dbl>
     1     2      1     0    0       1.62  33.7  18.0  15.7      7.25        11.6
     2     2      1     0    0       1.41  34.2  19.5  14.7      8.01        11.6
     3     2      1     1    1.1     1.13  43.9  23.0  21.0     11.9         11.5
     4     2      1     1    1.1     1.54  38.7  23.1  15.6     10.3         11.4
     5     2      1     1    1.1     1.42  50.1  23.8  26.3      8.78        11.4
     6     2      1     1    1.1     1.62  44.5  22.2  22.2     10.3         11.4
     7     3      2     0    0       1.4   35.2  18.9  16.3      8.78        12.7
     8     3      2     1    0.2     1.59  36.3  22.0  14.3      0.33        12.9
     9     4      2     0    0       1.47  37.9  17.7  20.2     NA           NA  
    10     5      2     0    0       1.41  32.8  19.5  13.3      2.64        14.0
    # ℹ 11 more rows
    # ℹ 2 more variables: Abundance <dbl>, TaxonID <dbl>
…
- Con el data.frame “Macrobenthos.txt”, crea un nuevo data.frame que
  contenga las variables relacionadas con el medio (de *organic matter*
  a *temperature*). Pista: mira la ayuda de select para ahorrar
  caracteres.

- Crea un nuevo objeto con el taxon al principio y que incluya las demás
  columnas excepto el esfuerzo de muestreo (*effort*).

``` r
# 1
macro |> 
  select(o_matter:temperature)
```

    # A tibble: 400 × 6
       o_matter   mud  silt  clay turbidity temperature
          <dbl> <dbl> <dbl> <dbl>     <dbl>       <dbl>
     1     1.16  35.3  25.1 10.2       5.71        10.5
     2     1.38  34.5  21.9 12.5       9.55        10.6
     3     1.84  38.4  23.5 14.9       8.01        10.6
     4     1.62  30.7  17.7 13.0       8.01        10.6
     5     1.62  32.6  23.3  9.27      8.78        10.6
     6     2.13  43.4  29.2 14.2       9.55        10.8
     7     1.78  39.4  26.5 12.9       9.55        10.8
     8     1.87  43.3  23.0 20.3       7.25        10.8
     9     1.56  41.3  22.2 19.1       8.01        10.8
    10     1.15  38.0  26.4 11.6       8.01        10.8
    # ℹ 390 more rows

``` r
# 2
macro |> 
  select(TaxonID, everything(), -effort)
```

    # A tibble: 400 × 11
       TaxonID  time period    CT o_matter   mud  silt  clay turbidity temperature
         <dbl> <dbl>  <dbl> <dbl>    <dbl> <dbl> <dbl> <dbl>     <dbl>       <dbl>
     1       1     1      1     0     1.16  35.3  25.1 10.2       5.71        10.5
     2       1     1      1     0     1.38  34.5  21.9 12.5       9.55        10.6
     3       1     1      1     0     1.84  38.4  23.5 14.9       8.01        10.6
     4       1     1      1     0     1.62  30.7  17.7 13.0       8.01        10.6
     5       1     1      1     0     1.62  32.6  23.3  9.27      8.78        10.6
     6       1     1      1     1     2.13  43.4  29.2 14.2       9.55        10.8
     7       1     1      1     1     1.78  39.4  26.5 12.9       9.55        10.8
     8       1     1      1     1     1.87  43.3  23.0 20.3       7.25        10.8
     9       1     1      1     1     1.56  41.3  22.2 19.1       8.01        10.8
    10       1     1      1     1     1.15  38.0  26.4 11.6       8.01        10.8
    # ℹ 390 more rows
    # ℹ 1 more variable: Abundance <dbl>

### Ejercicio 3.1.1

- Con el data.frame macrobenthos genera una nueva columna con la
  relación entre la turbidez del agua y la materia orgánica.

``` r
macro |> 
  mutate(
    tub_o_mat = turbidity / o_matter
  )
```

    # A tibble: 400 × 13
        time period    CT effort o_matter   mud  silt  clay turbidity temperature
       <dbl>  <dbl> <dbl>  <dbl>    <dbl> <dbl> <dbl> <dbl>     <dbl>       <dbl>
     1     1      1     0   0        1.16  35.3  25.1 10.2       5.71        10.5
     2     1      1     0   0        1.38  34.5  21.9 12.5       9.55        10.6
     3     1      1     0   0        1.84  38.4  23.5 14.9       8.01        10.6
     4     1      1     0   0        1.62  30.7  17.7 13.0       8.01        10.6
     5     1      1     0   0        1.62  32.6  23.3  9.27      8.78        10.6
     6     1      1     1   1.71     2.13  43.4  29.2 14.2       9.55        10.8
     7     1      1     1   1.71     1.78  39.4  26.5 12.9       9.55        10.8
     8     1      1     1   1.71     1.87  43.3  23.0 20.3       7.25        10.8
     9     1      1     1   1.71     1.56  41.3  22.2 19.1       8.01        10.8
    10     1      1     1   1.71     1.15  38.0  26.4 11.6       8.01        10.8
    # ℹ 390 more rows
    # ℹ 3 more variables: Abundance <dbl>, TaxonID <dbl>, tub_o_mat <dbl>
…
