…
``` r
# Tidyverse
estandarizar_tidy <- function(x, na.rm) {
  ({{ x }} - mean({{ x }}, na.rm = na.rm)) / sd({{ x }}, na.rm = na.rm)
} 

penguins |> 
  mutate(st_bill_length = estandarizar_tidy(x = bill_length_mm, na.rm = T)) |> 
  select(bill_length_mm, st_bill_length)
```

    # A tibble: 344 × 2
       bill_length_mm st_bill_length
                <dbl>          <dbl>
     1           39.1         -0.883
     2           39.5         -0.810
     3           40.3         -0.663
     4           NA           NA    
     5           36.7         -1.32 
     6           39.3         -0.847
     7           38.9         -0.920
     8           39.2         -0.865
     9           34.1         -1.80 
    10           42           -0.352
    # ℹ 334 more rows
…
``` r
penguins_list <- penguins |>
  group_split(species)

# asignamos nombres a las listas
names(penguins_list) <- c("p1", "p2", "p3")

# solucion al ejercicio
map2(penguins_list, names(penguins_list), \(x, y)
        mutate(x, nombre = y))
```

    $p1
    # A tibble: 152 × 9
       species island    bill_length_mm bill_depth_mm flipper_length_mm body_mass_g
       <fct>   <fct>              <dbl>         <dbl>             <int>       <int>
     1 Adelie  Torgersen           39.1          18.7               181        3750
     2 Adelie  Torgersen           39.5          17.4               186        3800
     3 Adelie  Torgersen           40.3          18                 195        3250
     4 Adelie  Torgersen           NA            NA                  NA          NA
     5 Adelie  Torgersen           36.7          19.3               193        3450
     6 Adelie  Torgersen           39.3          20.6               190        3650
     7 Adelie  Torgersen           38.9          17.8               181        3625
     8 Adelie  Torgersen           39.2          19.6               195        4675
     9 Adelie  Torgersen           34.1          18.1               193        3475
    10 Adelie  Torgersen           42            20.2               190        4250
    # ℹ 142 more rows
    # ℹ 3 more variables: sex <fct>, year <int>, nombre <chr>

    $p2
    # A tibble: 68 × 9
       species   island bill_length_mm bill_depth_mm flipper_length_mm body_mass_g
       <fct>     <fct>           <dbl>         <dbl>             <int>       <int>
     1 Chinstrap Dream            46.5          17.9               192        3500
     2 Chinstrap Dream            50            19.5               196        3900
     3 Chinstrap Dream            51.3          19.2               193        3650
     4 Chinstrap Dream            45.4          18.7               188        3525
     5 Chinstrap Dream            52.7          19.8               197        3725
     6 Chinstrap Dream            45.2          17.8               198        3950
     7 Chinstrap Dream            46.1          18.2               178        3250
     8 Chinstrap Dream            51.3          18.2               197        3750
     9 Chinstrap Dream            46            18.9               195        4150
    10 Chinstrap Dream            51.3          19.9               198        3700
    # ℹ 58 more rows
    # ℹ 3 more variables: sex <fct>, year <int>, nombre <chr>

    $p3
    # A tibble: 124 × 9
       species island bill_length_mm bill_depth_mm flipper_length_mm body_mass_g
       <fct>   <fct>           <dbl>         <dbl>             <int>       <int>
     1 Gentoo  Biscoe           46.1          13.2               211        4500
     2 Gentoo  Biscoe           50            16.3               230        5700
     3 Gentoo  Biscoe           48.7          14.1               210        4450
     4 Gentoo  Biscoe           50            15.2               218        5700
     5 Gentoo  Biscoe           47.6          14.5               215        5400
     6 Gentoo  Biscoe           46.5          13.5               210        4550
     7 Gentoo  Biscoe           45.4          14.6               211        4800
     8 Gentoo  Biscoe           46.7          15.3               219        5200
     9 Gentoo  Biscoe           43.3          13.4               209        4400
    10 Gentoo  Biscoe           46.8          15.4               215        5150
    # ℹ 114 more rows
    # ℹ 3 more variables: sex <fct>, year <int>, nombre <chr>
…
